<?xml version="1.0" encoding="UTF-8" standalone="no"?>
<!-- Created with Inkscape (http://www.inkscape.org/) -->

<svg
   xmlns:dc="http://purl.org/dc/elements/1.1/"
   xmlns:cc="http://creativecommons.org/ns#"
   xmlns:rdf="http://www.w3.org/1999/02/22-rdf-syntax-ns#"
   xmlns:svg="http://www.w3.org/2000/svg"
   xmlns="http://www.w3.org/2000/svg"
   xmlns:xlink="http://www.w3.org/1999/xlink"
   xmlns:sodipodi="http://sodipodi.sourceforge.net/DTD/sodipodi-0.dtd"
   xmlns:inkscape="http://www.inkscape.org/namespaces/inkscape"
   width="21.215132"
   height="21.944572"
   viewBox="0 0 5.6131703 5.8061679"
   version="1.1"
   id="svg5414"
   inkscape:version="0.91 r13725"
   sodipodi:docname="zoom_out_icon.svg">
  <defs
     id="defs5408">
    <linearGradient
       inkscape:collect="always"
       id="linearGradient6622">
      <stop
         style="stop-color:#ffffff;stop-opacity:1;"
         offset="0"
         id="stop6624" />
      <stop
         style="stop-color:#ffffff;stop-opacity:0;"
         offset="1"
         id="stop6626" />
    </linearGradient>
    <linearGradient
       inkscape:collect="always"
       xlink:href="#linearGradient6622"
       id="linearGradient6628"
       x1="-0.94759828"
       y1="26.483"
       x2="53.901585"
       y2="26.483"
       gradientUnits="userSpaceOnUse" />
    <linearGradient
       inkscape:collect="always"
       xlink:href="#linearGradient6622"
       id="linearGradient7786"
       gradientUnits="userSpaceOnUse"
       x1="-0.94759828"
       y1="26.483"
       x2="53.901585"
       y2="26.483" />
    <linearGradient
       inkscape:collect="always"
       xlink:href="#linearGradient6622"
       id="linearGradient7788"
       gradientUnits="userSpaceOnUse"
       x1="-0.94759828"
       y1="26.483"
       x2="53.901585"
       y2="26.483" />
    <linearGradient
       inkscape:collect="always"
       xlink:href="#linearGradient6622"
       id="linearGradient7790"
       gradientUnits="userSpaceOnUse"
       x1="-0.94759828"
       y1="26.483"
       x2="53.901585"
       y2="26.483" />
    <linearGradient
       inkscape:collect="always"
       xlink:href="#linearGradient6622"
       id="linearGradient7792"
       gradientUnits="userSpaceOnUse"
       x1="-0.94759828"
       y1="26.483"
       x2="53.901585"
       y2="26.483" />
    <linearGradient
       inkscape:collect="always"
       xlink:href="#linearGradient6622"
       id="linearGradient7794"
       gradientUnits="userSpaceOnUse"
       x1="-0.94759828"
       y1="26.483"
       x2="53.901585"
       y2="26.483" />
    <linearGradient
       inkscape:collect="always"
       xlink:href="#linearGradient6622"
       id="linearGradient7796"
       gradientUnits="userSpaceOnUse"
       x1="-0.94759828"
       y1="26.483"
       x2="53.901585"
       y2="26.483" />
    <linearGradient
       inkscape:collect="always"
       xlink:href="#linearGradient6622"
       id="linearGradient7798"
       gradientUnits="userSpaceOnUse"
       x1="-0.94759828"
       y1="26.483"
       x2="53.901585"
       y2="26.483" />
    <linearGradient
       inkscape:collect="always"
       xlink:href="#linearGradient6622"
       id="linearGradient7800"
       gradientUnits="userSpaceOnUse"
       x1="-0.94759828"
       y1="26.483"
       x2="53.901585"
       y2="26.483" />
    <linearGradient
       inkscape:collect="always"
       xlink:href="#linearGradient6622"
       id="linearGradient7802"
       gradientUnits="userSpaceOnUse"
       x1="-0.94759828"
       y1="26.483"
       x2="53.901585"
       y2="26.483" />
    <linearGradient
       inkscape:collect="always"
       xlink:href="#linearGradient6622"
       id="linearGradient7804"
       gradientUnits="userSpaceOnUse"
       x1="-0.94759828"
       y1="26.483"
       x2="53.901585"
       y2="26.483" />
    <linearGradient
       inkscape:collect="always"
       xlink:href="#linearGradient6622"
       id="linearGradient7806"
       gradientUnits="userSpaceOnUse"
       x1="-0.94759828"
       y1="26.483"
       x2="53.901585"
       y2="26.483" />
    <linearGradient
       inkscape:collect="always"
       xlink:href="#linearGradient6622"
       id="linearGradient7808"
       gradientUnits="userSpaceOnUse"
       x1="-0.94759828"
       y1="26.483"
       x2="53.901585"
       y2="26.483" />
    <linearGradient
       inkscape:collect="always"
       xlink:href="#linearGradient6622"
       id="linearGradient7810"
       gradientUnits="userSpaceOnUse"
       x1="-0.94759828"
       y1="26.483"
       x2="53.901585"
       y2="26.483" />
    <linearGradient
       inkscape:collect="always"
       xlink:href="#linearGradient6622"
       id="linearGradient7812"
       gradientUnits="userSpaceOnUse"
       x1="-0.94759828"
       y1="26.483"
       x2="53.901585"
       y2="26.483" />
    <linearGradient
       inkscape:collect="always"
       xlink:href="#linearGradient6622"
       id="linearGradient7814"
       gradientUnits="userSpaceOnUse"
       x1="-0.94759828"
       y1="26.483"
       x2="53.901585"
       y2="26.483" />
    <linearGradient
       inkscape:collect="always"
       xlink:href="#linearGradient6622"
       id="linearGradient7816"
       gradientUnits="userSpaceOnUse"
       x1="-0.94759828"
       y1="26.483"
       x2="53.901585"
       y2="26.483" />
    <linearGradient
       inkscape:collect="always"
       xlink:href="#linearGradient6622"
       id="linearGradient7818"
       gradientUnits="userSpaceOnUse"
       x1="-0.94759828"
       y1="26.483"
       x2="53.901585"
       y2="26.483" />
    <linearGradient
       inkscape:collect="always"
       xlink:href="#linearGradient6622"
       id="linearGradient7820"
       gradientUnits="userSpaceOnUse"
       x1="-0.94759828"
       y1="26.483"
       x2="53.901585"
       y2="26.483" />
  </defs>
  <sodipodi:namedview
     id="base"
     pagecolor="#ff0000"
     bordercolor="#666666"
     borderopacity="1.0"
     inkscape:pageopacity="0"
     inkscape:pageshadow="2"
     inkscape:zoom="11.257244"
     inkscape:cx="-19.464377"
     inkscape:cy="14.525528"
     inkscape:document-units="mm"
     inkscape:current-layer="layer1"
     showgrid="false"
     fit-margin-top="0"
     fit-margin-left="0"
     fit-margin-right="0"
     fit-margin-bottom="0"
     units="px"
     inkscape:pagecheckerboard="true"
     inkscape:window-width="1855"
     inkscape:window-height="1056"
     inkscape:window-x="65"
     inkscape:window-y="24"
     inkscape:window-maximized="1" />
  <metadata
     id="metadata5411">
    <rdf:RDF>
      <cc:Work
         rdf:about="">
        <dc:format>image/svg+xml</dc:format>
        <dc:type
           rdf:resource="http://purl.org/dc/dcmitype/StillImage" />
        <dc:title></dc:title>
      </cc:Work>
    </rdf:RDF>
  </metadata>
  <g
     inkscape:label="border"
     inkscape:groupmode="layer"
     id="layer1"
     transform="translate(-323.96127,-427.23741)">
    <g
       style="display:inline;opacity:1;fill:url(#linearGradient6628);fill-opacity:1;stroke:#333333;stroke-width:6.80986977;stroke-miterlimit:4;stroke-dasharray:none;stroke-opacity:1"
       transform="matrix(-0.0971323,0,0,-0.0971323,329.33919,432.71285)"
       id="g5478">
      <g
         style="fill:url(#linearGradient7790);fill-opacity:1;stroke:#333333;stroke-width:6.80986977;stroke-miterlimit:4;stroke-dasharray:none;stroke-opacity:1"
         id="g5421">
        <path
           style="fill:url(#linearGradient7786);fill-opacity:1;stroke:#333333;stroke-width:6.80986977;stroke-miterlimit:4;stroke-dasharray:none;stroke-opacity:1"
           inkscape:connector-curvature="0"
           d="m 28.983,20 -14,0 c -0.552,0 -1,0.448 -1,1 0,0.552 0.448,1 1,1 l 14,0 c 0.552,0 1,-0.448 1,-1 0,-0.552 -0.448,-1 -1,-1 z"
           id="path5417" />
        <path
           style="fill:url(#linearGradient7788);fill-opacity:1;stroke:#333333;stroke-width:6.80986977;stroke-miterlimit:4;stroke-dasharray:none;stroke-opacity:1"
           inkscape:connector-curvature="0"
           d="M 51.704,51.273 36.845,35.82 c 3.79,-3.801 6.138,-9.041 6.138,-14.82 0,-11.58 -9.42,-21 -21,-21 -11.58,0 -21,9.42 -21,21 0,11.58 9.42,21 21,21 5.083,0 9.748,-1.817 13.384,-4.832 l 14.895,15.491 c 0.196,0.205 0.458,0.307 0.721,0.307 0.25,0 0.499,-0.093 0.693,-0.279 0.398,-0.383 0.41,-1.016 0.028,-1.414 z M 2.983,21 c 0,-10.477 8.523,-19 19,-19 10.477,0 19,8.523 19,19 0,10.477 -8.523,19 -19,19 -10.477,0 -19,-8.523 -19,-19 z"
           id="path5419" />
      </g>
      <g
         style="fill:url(#linearGradient7792);fill-opacity:1;stroke:#333333;stroke-width:6.80986977;stroke-miterlimit:4;stroke-dasharray:none;stroke-opacity:1"
         id="g5423" />
      <g
         style="fill:url(#linearGradient7794);fill-opacity:1;stroke:#333333;stroke-width:6.80986977;stroke-miterlimit:4;stroke-dasharray:none;stroke-opacity:1"
         id="g5425" />
      <g
         style="fill:url(#linearGradient7796);fill-opacity:1;stroke:#333333;stroke-width:6.80986977;stroke-miterlimit:4;stroke-dasharray:none;stroke-opacity:1"
         id="g5427" />
      <g
         style="fill:url(#linearGradient7798);fill-opacity:1;stroke:#333333;stroke-width:6.80986977;stroke-miterlimit:4;stroke-dasharray:none;stroke-opacity:1"
         id="g5429" />
      <g
         style="fill:url(#linearGradient7800);fill-opacity:1;stroke:#333333;stroke-width:6.80986977;stroke-miterlimit:4;stroke-dasharray:none;stroke-opacity:1"
         id="g5431" />
      <g
         style="fill:url(#linearGradient7802);fill-opacity:1;stroke:#333333;stroke-width:6.80986977;stroke-miterlimit:4;stroke-dasharray:none;stroke-opacity:1"
         id="g5433" />
      <g
         style="fill:url(#linearGradient7804);fill-opacity:1;stroke:#333333;stroke-width:6.80986977;stroke-miterlimit:4;stroke-dasharray:none;stroke-opacity:1"
         id="g5435" />
      <g
         style="fill:url(#linearGradient7806);fill-opacity:1;stroke:#333333;stroke-width:6.80986977;stroke-miterlimit:4;stroke-dasharray:none;stroke-opacity:1"
         id="g5437" />
      <g
         style="fill:url(#linearGradient7808);fill-opacity:1;stroke:#333333;stroke-width:6.80986977;stroke-miterlimit:4;stroke-dasharray:none;stroke-opacity:1"
         id="g5439" />
      <g
         style="fill:url(#linearGradient7810);fill-opacity:1;stroke:#333333;stroke-width:6.80986977;stroke-miterlimit:4;stroke-dasharray:none;stroke-opacity:1"
         id="g5441" />
      <g
         style="fill:url(#linearGradient7812);fill-opacity:1;stroke:#333333;stroke-width:6.80986977;stroke-miterlimit:4;stroke-dasharray:none;stroke-opacity:1"
         id="g5443" />
      <g
         style="fill:url(#linearGradient7814);fill-opacity:1;stroke:#333333;stroke-width:6.80986977;stroke-miterlimit:4;stroke-dasharray:none;stroke-opacity:1"
         id="g5445" />
      <g
         style="fill:url(#linearGradient7816);fill-opacity:1;stroke:#333333;stroke-width:6.80986977;stroke-miterlimit:4;stroke-dasharray:none;stroke-opacity:1"
         id="g5447" />
      <g
         style="fill:url(#linearGradient7818);fill-opacity:1;stroke:#333333;stroke-width:6.80986977;stroke-miterlimit:4;stroke-dasharray:none;stroke-opacity:1"
         id="g5449" />
      <g
         style="fill:url(#linearGradient7820);fill-opacity:1;stroke:#333333;stroke-width:6.80986977;stroke-miterlimit:4;stroke-dasharray:none;stroke-opacity:1"
         id="g5451" />
    </g>
  </g>
  <g
     transform="translate(-323.96127,-427.23741)"
     id="g6582"
     inkscape:groupmode="layer"
     inkscape:label="foreground"
     sodipodi:insensitive="true">
    <g
       id="g6584"
       transform="matrix(-0.0971323,0,0,-0.0971323,329.33919,432.71285)"
       style="display:inline;opacity:1;fill:#ffffff;stroke:#ffffff;stroke-width:3.86119652;stroke-miterlimit:4;stroke-dasharray:none;stroke-opacity:1">
      <g
         id="g6586"
         style="fill:#ffffff;stroke:#ffffff;stroke-width:3.86119652;stroke-miterlimit:4;stroke-dasharray:none;stroke-opacity:1">
        <path
           id="path6588"
           d="m 28.983,20 -14,0 c -0.552,0 -1,0.448 -1,1 0,0.552 0.448,1 1,1 l 14,0 c 0.552,0 1,-0.448 1,-1 0,-0.552 -0.448,-1 -1,-1 z"
           inkscape:connector-curvature="0"
           style="fill:#ffffff;stroke:#ffffff;stroke-width:3.86119652;stroke-miterlimit:4;stroke-dasharray:none;stroke-opacity:1" />
        <path
           id="path6590"
           d="M 51.704,51.273 36.845,35.82 c 3.79,-3.801 6.138,-9.041 6.138,-14.82 0,-11.58 -9.42,-21 -21,-21 -11.58,0 -21,9.42 -21,21 0,11.58 9.42,21 21,21 5.083,0 9.748,-1.817 13.384,-4.832 l 14.895,15.491 c 0.196,0.205 0.458,0.307 0.721,0.307 0.25,0 0.499,-0.093 0.693,-0.279 0.398,-0.383 0.41,-1.016 0.028,-1.414 z M 2.983,21 c 0,-10.477 8.523,-19 19,-19 10.477,0 19,8.523 19,19 0,10.477 -8.523,19 -19,19 -10.477,0 -19,-8.523 -19,-19 z"
           inkscape:connector-curvature="0"
           style="fill:#ffffff;stroke:#ffffff;stroke-width:3.86119652;stroke-miterlimit:4;stroke-dasharray:none;stroke-opacity:1" />
      </g>
      <g
         id="g6592"
         style="fill:#ffffff;stroke:#ffffff;stroke-width:3.86119652;stroke-miterlimit:4;stroke-dasharray:none;stroke-opacity:1" />
      <g
         id="g6594"
         style="fill:#ffffff;stroke:#ffffff;stroke-width:3.86119652;stroke-miterlimit:4;stroke-dasharray:none;stroke-opacity:1" />
      <g
         id="g6596"
         style="fill:#ffffff;stroke:#ffffff;stroke-width:3.86119652;stroke-miterlimit:4;stroke-dasharray:none;stroke-opacity:1" />
      <g
         id="g6598"
         style="fill:#ffffff;stroke:#ffffff;stroke-width:3.86119652;stroke-miterlimit:4;stroke-dasharray:none;stroke-opacity:1" />
      <g
         id="g6600"
         style="fill:#ffffff;stroke:#ffffff;stroke-width:3.86119652;stroke-miterlimit:4;stroke-dasharray:none;stroke-opacity:1" />
      <g
         id="g6602"
         style="fill:#ffffff;stroke:#ffffff;stroke-width:3.86119652;stroke-miterlimit:4;stroke-dasharray:none;stroke-opacity:1" />
      <g
         id="g6604"
         style="fill:#ffffff;stroke:#ffffff;stroke-width:3.86119652;stroke-miterlimit:4;stroke-dasharray:none;stroke-opacity:1" />
      <g
         id="g6606"
         style="fill:#ffffff;stroke:#ffffff;stroke-width:3.86119652;stroke-miterlimit:4;stroke-dasharray:none;stroke-opacity:1" />
      <g
         id="g6608"
         style="fill:#ffffff;stroke:#ffffff;stroke-width:3.86119652;stroke-miterlimit:4;stroke-dasharray:none;stroke-opacity:1" />
      <g
         id="g6610"
         style="fill:#ffffff;stroke:#ffffff;stroke-width:3.86119652;stroke-miterlimit:4;stroke-dasharray:none;stroke-opacity:1" />
      <g
         id="g6612"
         style="fill:#ffffff;stroke:#ffffff;stroke-width:3.86119652;stroke-miterlimit:4;stroke-dasharray:none;stroke-opacity:1" />
      <g
         id="g6614"
         style="fill:#ffffff;stroke:#ffffff;stroke-width:3.86119652;stroke-miterlimit:4;stroke-dasharray:none;stroke-opacity:1" />
      <g
         id="g6616"
         style="fill:#ffffff;stroke:#ffffff;stroke-width:3.86119652;stroke-miterlimit:4;stroke-dasharray:none;stroke-opacity:1" />
      <g
         id="g6618"
         style="fill:#ffffff;stroke:#ffffff;stroke-width:3.86119652;stroke-miterlimit:4;stroke-dasharray:none;stroke-opacity:1" />
      <g
         id="g6620"
         style="fill:#ffffff;stroke:#ffffff;stroke-width:3.86119652;stroke-miterlimit:4;stroke-dasharray:none;stroke-opacity:1" />
    </g>
  </g>
</svg>
